*** Life<ConwayCell> 1x1 ***

Generation = 0, Population = 1.
*

Generation = 10, Population = 0.
.

Generation = 20, Population = 0.
.

Generation = 30, Population = 0.
.

Generation = 40, Population = 0.
.

Generation = 50, Population = 0.
.

*** Life<ConwayCell> 3x3 ***

Generation = 0, Population = 3.
.*.
.*.
.*.

Generation = 10, Population = 3.
.*.
.*.
.*.

Generation = 20, Population = 3.
.*.
.*.
.*.

*** Life<ConwayCell> 20x20 ***

Generation = 0, Population = 19.
....................
..**********........
...*................
...*................
..****..............
....................
...**...............
....................
......*.............
....................
....................
....................
....................
....................
....................
....................
....................
....................
....................
....................

Generation = 1, Population = 28.
...********.........
..*********.........
.....******.........
....................
..***...............
..*..*..............
....................
....................
....................
....................
....................
....................
....................
....................
....................
....................
....................
....................
....................
....................

Generation = 2, Population = 18.
..*.......*.........
..*........*........
...*......*.........
...*******..........
..***...............
..*.*...............
....................
....................
....................
....................
....................
....................
....................
....................
....................
....................
....................
....................
....................
....................

Generation = 3, Population = 23.
....................
..**......**........
..**.******.........
.....*****..........
..*...***...........
..*.*...............
....................
....................
....................
....................
....................
....................
....................
....................
....................
....................
....................
....................
....................
....................

Generation = 4, Population = 20.
....................
..***.***.**........
..**.*.....*........
..***.....*.........
...*.....*..........
...*...*............
....................
....................
....................
....................
....................
....................
....................
....................
....................
....................
....................
....................
....................
....................

Generation = 5, Population = 16.
...*...*............
..*.****..**........
.*...***.*.*........
..........*.........
....................
....................
....................
....................
....................
....................
....................
....................
....................
....................
....................
....................
....................
....................
....................
....................

Generation = 6, Population = 16.
...***.*............
..***.....**........
....*..***.*........
......*...*.........
....................
....................
....................
....................
....................
....................
....................
....................
....................
....................
....................
....................
....................
....................
....................
....................

Generation = 7, Population = 18.
..*..*..............
..*...**.***........
....**.***.*........
.......****.........
....................
....................
....................
....................
....................
....................
....................
....................
....................
....................
....................
....................
....................
....................
....................
....................

Generation = 8, Population = 14.
......*...*.........
...**..*.*.*........
.....*.....*........
......**..*.........
........**..........
....................
....................
....................
....................
....................
....................
....................
....................
....................
....................
....................
....................
....................
....................
....................

Generation = 9, Population = 18.
..........*.........
....***....*........
....**.**..*........
......*****.........
.......***..........
....................
....................
....................
....................
....................
....................
....................
....................
....................
....................
....................
....................
....................
....................
....................

Generation = 10, Population = 13.
.....*..............
....*.**..**........
....*......*........
.....*....*.........
......*...*.........
........*...........
....................
....................
....................
....................
....................
....................
....................
....................
....................
....................
....................
....................
....................
....................

Generation = 11, Population = 13.
.....**.............
....*.*...**........
....*.*....*........
.....*....**........
.........*..........
....................
....................
....................
....................
....................
....................
....................
....................
....................
....................
....................
....................
....................
....................
....................

Generation = 12, Population = 14.
.....**.............
....*.**..**........
....*.*.....*.......
.....*....**........
..........*.........
....................
....................
....................
....................
....................
....................
....................
....................
....................
....................
....................
....................
....................
....................
....................

Generation = 13, Population = 15.
.....***............
....*..*...*........
....*.**....*.......
.....*....**........
..........**........
....................
....................
....................
....................
....................
....................
....................
....................
....................
....................
....................
....................
....................
....................
....................

Generation = 14, Population = 16.
.....***............
....*...*...........
....*.**..*.*.......
.....**...*.*.......
..........**........
....................
....................
....................
....................
....................
....................
....................
....................
....................
....................
....................
....................
....................
....................
....................

Generation = 15, Population = 17.
.....***............
....*...*...........
....*.**.*..........
.....***.**.*.......
..........**........
....................
....................
....................
....................
....................
....................
....................
....................
....................
....................
....................
....................
....................
....................
....................

Generation = 16, Population = 15.
.....***............
....*...*...........
....*....**.........
.....*.*.*..........
......*..***........
....................
....................
....................
....................
....................
....................
....................
....................
....................
....................
....................
....................
....................
....................
....................

Generation = 17, Population = 20.
.....***............
....*.****..........
....**...**.........
.....**....*........
......*.***.........
..........*.........
....................
....................
....................
....................
....................
....................
....................
....................
....................
....................
....................
....................
....................
....................

Generation = 18, Population = 19.
.....*..............
....*....**.........
....*....**.........
....*.***..*........
.....***.***........
..........*.........
....................
....................
....................
....................
....................
....................
....................
....................
....................
....................
....................
....................
....................
....................

Generation = 19, Population = 17.
....................
....**...**.........
...**..*...*........
....*......*........
.....*...*.*........
......*..***........
....................
....................
....................
....................
....................
....................
....................
....................
....................
....................
....................
....................
....................
....................

Generation = 20, Population = 18.
....................
...***....*.........
...*.......*........
...***.....**.......
.....*...*.**.......
.........*.*........
..........*.........
....................
....................
....................
....................
....................
....................
....................
....................
....................
....................
....................
....................
....................

Generation = 21, Population = 14.
....*...............
...**...............
..*.......***.......
...*.*..............
.....*..............
.........*.**.......
..........*.........
....................
....................
....................
....................
....................
....................
....................
....................
....................
....................
....................
....................
....................

Generation = 22, Population = 14.
...**...............
...**......*........
..*........*........
....*......*........
....*...............
..........**........
..........**........
....................
....................
....................
....................
....................
....................
....................
....................
....................
....................
....................
....................
....................

Generation = 23, Population = 15.
...**...............
..*.*...............
....*.....***.......
...*................
..........**........
..........**........
..........**........
....................
....................
....................
....................
....................
....................
....................
....................
....................
....................
....................
....................
....................

Generation = 24, Population = 14.
...**...............
....**.....*........
....*......*........
............*.......
..........**........
.........*..*.......
..........**........
....................
....................
....................
....................
....................
....................
....................
....................
....................
....................
....................
....................
....................

Generation = 25, Population = 17.
...***..............
.....*..............
....**.....**.......
..........*.*.......
..........***.......
.........*..*.......
..........**........
....................
....................
....................
....................
....................
....................
....................
....................
....................
....................
....................
....................
....................

Generation = 26, Population = 18.
....**..............
...*..*.............
....**.....**.......
..........*..*......
.........**.**......
.........*..*.......
..........**........
....................
....................
....................
....................
....................
....................
....................
....................
....................
....................
....................
....................
....................

Generation = 27, Population = 20.
....**..............
...*..*.............
....**.....**.......
.........**..*......
.........**.**......
.........*..**......
..........**........
....................
....................
....................
....................
....................
....................
....................
....................
....................
....................
....................
....................
....................

Generation = 28, Population = 18.
....**..............
...*..*.............
....**....***.......
.........*...*......
........*.....*.....
.........*...*......
..........***.......
....................
....................
....................
....................
....................
....................
....................
....................
....................
....................
....................
....................
....................

Generation = 29, Population = 28.
....**..............
...*..*....*........
....**....***.......
.........*****......
........**...**.....
.........*****......
..........***.......
...........*........
....................
....................
....................
....................
....................
....................
....................
....................
....................
....................
....................
....................

Generation = 30, Population = 22.
....**..............
...*..*...***.......
....**...*...*......
........*.....*.....
........*.....*.....
........*.....*.....
.........*...*......
..........***.......
....................
....................
....................
....................
....................
....................
....................
....................
....................
....................
....................
....................

Generation = 31, Population = 38.
....**.....*........
...*..*...***.......
....**...*****......
........**...**.....
.......***...***....
........**...**.....
.........*****......
..........***.......
...........*........
....................
....................
....................
....................
....................
....................
....................
....................
....................
....................
....................

Generation = 32, Population = 30.
....**....***.......
...*..*..*...*......
....**..*.....*.....
.......*...*...*....
.......*..*.*..*....
.......*...*...*....
........*.....*.....
.........*...*......
..........***.......
....................
....................
....................
....................
....................
....................
....................
....................
....................
....................
....................

Generation = 33, Population = 48.
....**....***.......
...*..*..*****......
....*****.....*.....
......***..*..**....
......***.*.*.***...
.......**..*..**....
........*.....*.....
.........*****......
..........***.......
...........*........
....................
....................
....................
....................
....................
....................
....................
....................
....................
....................

Generation = 34, Population = 30.
....**...*...*......
...*....**...*......
....*.........**....
...........*....*...
..........*.*...*...
......*....*....*...
.......**.....**....
.........*...*......
.........*...*......
..........***.......
....................
....................
....................
....................
....................
....................
....................
....................
....................
....................

Generation = 35, Population = 33.
....*...**..........
...*.*..**...*......
..............**....
...........*....*...
..........*.*..***..
.......*...*....*...
.......**.....**....
.........*...*......
.........*.*.*......
..........***.......
...........*........
....................
....................
....................
....................
....................
....................
....................
....................
....................

Generation = 36, Population = 35.
....*...**..........
....*...**....*.....
..............**....
...........*..*..*..
..........*.*..*.*..
.......**..*..*..*..
.......**.....**....
.........**.**......
.........*.*.*......
....................
..........***.......
....................
....................
....................
....................
....................
....................
....................
....................
....................

Generation = 37, Population = 41.
........**..........
........**....**....
.............***....
...........*.**.....
..........*.****.**.
.......***.*.**.....
.......*..***.**....
.........*****......
.........*.*.*......
....................
...........*........
...........*........
....................
....................
....................
....................
....................
....................
....................
....................

Generation = 38, Population = 26.
........**..........
........**...*.*....
............*.......
...........*....*...
........***....*....
.......***......*...
.......*.......*....
........**..........
.........*.*.*......
..........*.*.......
....................
....................
....................
....................
....................
....................
....................
....................
....................
....................

Generation = 39, Population = 27.
........**..........
........**..........
............*.......
.........***........
.......*..*....**...
.......*..*....**...
.......*............
........***.........
........**.**.......
..........***.......
....................
....................
....................
....................
....................
....................
....................
....................
....................
....................

Generation = 40, Population = 28.
........**..........
........**..........
........*..*........
.........***........
........*......**...
......***......**...
.......*..*.........
.......*..**........
........*...*.......
.........**.*.......
...........*........
....................
....................
....................
....................
....................
....................
....................
....................
....................

Generation = 41, Population = 34.
........**..........
.......*..*.........
........*..*........
........****........
........*.*....**...
......*.**.....**...
.........***........
.......*****........
........*...*.......
.........**.*.......
..........**........
....................
....................
....................
....................
....................
....................
....................
....................
....................

Generation = 42, Population = 29.
........**..........
.......*..*.........
.......**..*........
.......**..*........
...........*...**...
.......**..*...**...
...........*........
.......*....*.......
.......*....*.......
.........**.*.......
.........***........
....................
....................
....................
....................
....................
....................
....................
....................
....................

Generation = 43, Population = 38.
........**..........
.......*..*.........
......*..***........
.......**.***.......
..........***..**...
..........***..**...
.......**..**.......
...........**.......
........*...**......
........**..*.......
.........*.*........
..........*.........
....................
....................
....................
....................
....................
....................
....................
....................

Generation = 44, Population = 31.
........**..........
.......*...*........
......*.....*.......
.......**...........
.............*.**...
.........*...*.**...
.............*......
.......**...........
........**...*......
........******......
........**.*........
..........*.........
....................
....................
....................
....................
....................
....................
....................
....................

Generation = 45, Population = 26.
........*...........
.......**...........
......*.*...........
.......*............
........*......**...
............**.**...
........*.....*.....
.......***..........
...........*.*......
.......*...*.*......
........*...........
.........**.........
....................
....................
....................
....................
....................
....................
....................
....................

Generation = 46, Population = 28.
.......**...........
........**..........
......*.*...........
.......**...........
..............***...
.............*..*...
.......***...***....
.......***..........
.......*..*.........
....................
........***.........
.........*..........
....................
....................
....................
....................
....................
....................
....................
....................

Generation = 47, Population = 31.
.......***..........
.........*..........
....................
.......**......*....
..............***...
........*....*..*...
.......*.*...***....
......*...*...*.....
.......*.*..........
........*.*.........
........***.........
........***.........
....................
....................
....................
....................
....................
....................
....................
....................

Generation = 48, Population = 37.
........**..........
.........*..........
........*...........
..............***...
.......**.....*.*...
........*....*..*...
.......***...*.*....
......**.**..***....
.......****.........
.......*..*.........
.......*...*........
........*.*.........
.........*..........
....................
....................
....................
....................
....................
....................
....................

Generation = 49, Population = 40.
........**..........
.........*..........
...............*....
.......**.....*.*...
.......**....**.**..
.............*..*...
......*...*.**.**...
......*......*.*....
...........*..*.....
......**..**........
.......*****........
........***.........
.........*..........
....................
....................
....................
....................
....................
....................
....................

Generation = 50, Population = 42.
........**..........
........**..........
........*......*....
.......**....**.**..
.......**....**.**..
.......*............
............**.**...
...........*.*.**...
......**..***.*.....
......**....*.......
......*.............
.......*...*........
........***.........
....................
....................
....................
....................
....................
....................
....................

*** Life<ConwayCell> 15x15 ***

Generation = 0, Population = 10.
...............
**********.....
...............
...............
...............
...............
...............
...............
...............
...............
...............
...............
...............
...............
...............

Generation = 1, Population = 24.
.********......
.********......
.********......
...............
...............
...............
...............
...............
...............
...............
...............
...............
...............
...............
...............

Generation = 2, Population = 12.
.*......*......
*........*.....
.*......*......
..******.......
...............
...............
...............
...............
...............
...............
...............
...............
...............
...............
...............

Generation = 3, Population = 22.
...............
**......**.....
.********......
..******.......
...****........
...............
...............
...............
...............
...............
...............
...............
...............
...............
...............

Generation = 4, Population = 16.
...............
**.****.**.....
*........*.....
.*......*......
..*....*.......
....**.........
...............
...............
...............
...............
...............
...............
...............
...............
...............

Generation = 5, Population = 16.
....**.........
**..**..**.....
*.*.**.*.*.....
.*......*......
...............
...............
...............
...............
...............
...............
...............
...............
...............
...............
...............

Generation = 6, Population = 16.
....**.........
**......**.....
*.******.*.....
.*......*......
...............
...............
...............
...............
...............
...............
...............
...............
...............
...............
...............

Generation = 7, Population = 22.
...............
***....***.....
*.******.*.....
.********......
...............
...............
...............
...............
...............
...............
...............
...............
...............
...............
...............

Generation = 8, Population = 18.
.*......*......
*.*.**.*.*.....
*........*.....
.*......*......
..******.......
...............
...............
...............
...............
...............
...............
...............
...............
...............
...............

Generation = 9, Population = 24.
.*......*......
*........*.....
*........*.....
.********......
..******.......
...****........
...............
...............
...............
...............
...............
...............
...............
...............
...............

Generation = 10, Population = 20.
...............
**......**.....
*.******.*.....
.*......*......
.*......*......
..*....*.......
....**.........
...............
...............
...............
...............
...............
...............
...............
...............

*** Life<ConwayCell> 17x17 ***

Generation = 0, Population = 2.
.................
.................
.................
.................
.................
.................
.................
.................
.......*.*.......
.................
.................
.................
.................
.................
.................
.................
.................

Generation = 15, Population = 0.
.................
.................
.................
.................
.................
.................
.................
.................
.................
.................
.................
.................
.................
.................
.................
.................
.................

Generation = 30, Population = 0.
.................
.................
.................
.................
.................
.................
.................
.................
.................
.................
.................
.................
.................
.................
.................
.................
.................

Generation = 45, Population = 0.
.................
.................
.................
.................
.................
.................
.................
.................
.................
.................
.................
.................
.................
.................
.................
.................
.................

*** Life<ConwayCell> 15x15 ***

Generation = 0, Population = 8.
...............
.........*.....
...............
......***......
...............
.....**........
...............
.......*.......
...............
.........*.....
...............
...............
...............
...............
...............

Generation = 5, Population = 2.
...............
...............
...............
.......*.......
.......*.......
...............
...............
...............
...............
...............
...............
...............
...............
...............
...............

Generation = 10, Population = 0.
...............
...............
...............
...............
...............
...............
...............
...............
...............
...............
...............
...............
...............
...............
...............

Generation = 15, Population = 0.
...............
...............
...............
...............
...............
...............
...............
...............
...............
...............
...............
...............
...............
...............
...............

Generation = 20, Population = 0.
...............
...............
...............
...............
...............
...............
...............
...............
...............
...............
...............
...............
...............
...............
...............

Generation = 25, Population = 0.
...............
...............
...............
...............
...............
...............
...............
...............
...............
...............
...............
...............
...............
...............
...............

Generation = 30, Population = 0.
...............
...............
...............
...............
...............
...............
...............
...............
...............
...............
...............
...............
...............
...............
...............

Generation = 35, Population = 0.
...............
...............
...............
...............
...............
...............
...............
...............
...............
...............
...............
...............
...............
...............
...............

Generation = 40, Population = 0.
...............
...............
...............
...............
...............
...............
...............
...............
...............
...............
...............
...............
...............
...............
...............

Generation = 45, Population = 0.
...............
...............
...............
...............
...............
...............
...............
...............
...............
...............
...............
...............
...............
...............
...............

Generation = 50, Population = 0.
...............
...............
...............
...............
...............
...............
...............
...............
...............
...............
...............
...............
...............
...............
...............

*** Life<ConwayCell> 5x5 ***

Generation = 0, Population = 6.
.....
..*..
.*.**
..**.
.....

Generation = 5, Population = 9.
.....
..**.
.*..*
.**.*
.**..

Generation = 10, Population = 12.
.....
.***.
**.**
*..**
.**..

Generation = 15, Population = 5.
.....
**...
..*..
**...
.....

Generation = 20, Population = 0.
.....
.....
.....
.....
.....

Generation = 25, Population = 0.
.....
.....
.....
.....
.....

Generation = 30, Population = 0.
.....
.....
.....
.....
.....

Generation = 35, Population = 0.
.....
.....
.....
.....
.....

Generation = 40, Population = 0.
.....
.....
.....
.....
.....

Generation = 45, Population = 0.
.....
.....
.....
.....
.....

Generation = 50, Population = 0.
.....
.....
.....
.....
.....

*** Life<ConwayCell> 40x40 ***

Generation = 0, Population = 20.
........................................
.*......................................
......**................................
....*...................................
........................................
........................................
........................................
......*.................................
........................................
........................................
........................................
...........*............................
........................................
........................................
........................................
........................................
........................................
...*....................................
........................................
........................................
....*...................................
........................................
........................................
.......................*................
........................................
........................................
........................................
..**....................................
.....*..................................
........................................
........................................
.....*..*...............................
......*.................................
........*...............................
........................................
........................................
.....*.*................................
..*.....................................
........................................
...*....................................

Generation = 25, Population = 0.
........................................
........................................
........................................
........................................
........................................
........................................
........................................
........................................
........................................
........................................
........................................
........................................
........................................
........................................
........................................
........................................
........................................
........................................
........................................
........................................
........................................
........................................
........................................
........................................
........................................
........................................
........................................
........................................
........................................
........................................
........................................
........................................
........................................
........................................
........................................
........................................
........................................
........................................
........................................
........................................

Generation = 50, Population = 0.
........................................
........................................
........................................
........................................
........................................
........................................
........................................
........................................
........................................
........................................
........................................
........................................
........................................
........................................
........................................
........................................
........................................
........................................
........................................
........................................
........................................
........................................
........................................
........................................
........................................
........................................
........................................
........................................
........................................
........................................
........................................
........................................
........................................
........................................
........................................
........................................
........................................
........................................
........................................
........................................

*** Life<ConwayCell> 5x5 ***

Generation = 0, Population = 25.
*****
*****
*****
*****
*****

Generation = 10, Population = 0.
.....
.....
.....
.....
.....

Generation = 20, Population = 0.
.....
.....
.....
.....
.....

Generation = 30, Population = 0.
.....
.....
.....
.....
.....

Generation = 40, Population = 0.
.....
.....
.....
.....
.....

Generation = 50, Population = 0.
.....
.....
.....
.....
.....

*** Life<ConwayCell> 10x10 ***

Generation = 0, Population = 61.
**********
**********
**********
**********
**********
**********
*.........
..........
..........
..........

Generation = 25, Population = 0.
..........
..........
..........
..........
..........
..........
..........
..........
..........
..........

Generation = 50, Population = 0.
..........
..........
..........
..........
..........
..........
..........
..........
..........
..........
