*** Life<ConwayCell> 5x5 ***

Generation = 0, Population = 12.
*.*.*
*..*.
.**.*
.**.*
..*..

Generation = 1, Population = 9.
.*.*.
*...*
*...*
.....
.***.

Generation = 2, Population = 8.
.....
**.**
.....
.***.
..*..

Generation = 3, Population = 8.
.....
.....
*...*
.***.
.***.

Generation = 4, Population = 7.
.....
.....
.***.
*...*
.*.*.

Generation = 5, Population = 6.
.....
..*..
.***.
*...*
.....

*** Life<ConwayCell> 5x5 ***

Generation = 0, Population = 12.
.**..
..***
*...*
*.**.
*.*..

Generation = 1, Population = 10.
.**..
..*.*
....*
*.**.
..**.

Generation = 2, Population = 14.
.***.
.**..
.**.*
.**.*
.***.

Generation = 3, Population = 8.
.*.*.
*....
*....
*...*
.*.*.

Generation = 4, Population = 6.
.....
**...
**...
**...
.....

Generation = 5, Population = 5.
.....
**...
..*..
**...
.....

*** Life<ConwayCell> 5x5 ***

Generation = 0, Population = 10.
.**..
..*..
.**..
**.**
..*..

Generation = 1, Population = 9.
.**..
...*.
*....
*..*.
.***.

Generation = 2, Population = 8.
..*..
.**..
.....
*..*.
.***.

Generation = 3, Population = 11.
.**..
.**..
.**..
.*.*.
.***.

Generation = 4, Population = 10.
.**..
*..*.
*..*.
*..*.
.*.*.

Generation = 5, Population = 14.
.**..
*..*.
*****
**.**
..*..

*** Life<ConwayCell> 5x5 ***

Generation = 0, Population = 11.
*....
**...
.*..*
.***.
*..**

Generation = 1, Population = 10.
**...
**...
...*.
**...
.*.**

Generation = 2, Population = 13.
**...
***..
..*..
**.**
***..

Generation = 3, Population = 9.
*.*..
*.*..
.....
*..*.
*.**.

Generation = 4, Population = 7.
.....
.....
.*...
.***.
.***.

Generation = 5, Population = 5.
.....
.....
.*...
*..*.
.*.*.

*** Life<ConwayCell> 5x5 ***

Generation = 0, Population = 11.
..**.
....*
...*.
.****
*..**

Generation = 1, Population = 6.
...*.
..*.*
.....
.*...
.*..*

Generation = 2, Population = 2.
...*.
...*.
.....
.....
.....

Generation = 3, Population = 0.
.....
.....
.....
.....
.....

Generation = 4, Population = 0.
.....
.....
.....
.....
.....

Generation = 5, Population = 0.
.....
.....
.....
.....
.....

*** Life<ConwayCell> 5x5 ***

Generation = 0, Population = 12.
...**
...**
*****
...*.
*.*..

Generation = 1, Population = 6.
...**
.*...
.*...
*...*
.....

Generation = 2, Population = 3.
.....
..*..
**...
.....
.....

Generation = 3, Population = 2.
.....
.*...
.*...
.....
.....

Generation = 4, Population = 0.
.....
.....
.....
.....
.....

Generation = 5, Population = 0.
.....
.....
.....
.....
.....

*** Life<ConwayCell> 5x5 ***

Generation = 0, Population = 11.
****.
.*..*
.*...
**...
*..*.

Generation = 1, Population = 12.
****.
...*.
.**..
***..
**...

Generation = 2, Population = 9.
.***.
*..*.
*..*.
.....
*.*..

Generation = 3, Population = 7.
.***.
*..**
.....
.*...
.....

Generation = 4, Population = 7.
.****
.*.**
.....
.....
.....

Generation = 5, Population = 4.
.*..*
.*..*
.....
.....
.....

*** Life<ConwayCell> 5x5 ***

Generation = 0, Population = 11.
...*.
.****
.*..*
**.*.
..*..

Generation = 1, Population = 10.
...**
.*..*
....*
**.*.
.**..

Generation = 2, Population = 14.
...**
....*
*****
**.*.
***..

Generation = 3, Population = 8.
...**
.*...
*...*
....*
*.*..

Generation = 4, Population = 4.
.....
...**
.....
.*.*.
.....

Generation = 5, Population = 3.
.....
.....
..***
.....
.....

*** Life<ConwayCell> 5x5 ***

Generation = 0, Population = 12.
.**..
.****
*..*.
*....
**.*.

Generation = 1, Population = 10.
.*...
*...*
*..**
*.*..
**...

Generation = 2, Population = 12.
.....
**.**
*..**
*.**.
**...

Generation = 3, Population = 13.
.....
*****
*....
*.***
***..

Generation = 4, Population = 13.
.***.
****.
*....
*.**.
*.*..

Generation = 5, Population = 10.
*..*.
*..*.
*....
*.**.
..**.

*** Life<ConwayCell> 5x5 ***

Generation = 0, Population = 13.
..*..
..***
**.**
*****
.....

Generation = 1, Population = 8.
..*..
....*
*....
*...*
.***.

Generation = 2, Population = 6.
.....
.....
.....
*.**.
.***.

Generation = 3, Population = 3.
.....
.....
.....
...*.
.*.*.

Generation = 4, Population = 2.
.....
.....
.....
..*..
..*..

Generation = 5, Population = 0.
.....
.....
.....
.....
.....
